[
    {
        "tbResCalcID": "a1",
        "tbResCalcTbResID": "700",
        "tbResCalcTbID": "525",
        "tbResCalcName": "SummaryRow",
        "tbResCalcWeek": 0,
        "tbResCalcHours": 0,
        "tbResCalcWdays": 0,
        "tbResCalcStartWeekNo": 5,
        "tbResCalcTbWeekNo": 30,
        "tbResCalcWeekSumHours": 0,
        "tbResCalcWeekSumCost": 0,
        "tbResCalcWeek1": 0,
        "tbResCalcWeek2": 0,
        "tbResCalcWeek3": 0,
        "tbResCalcWeek4": 0,
        "tbResCalcWeek5": 0,
        "tbResCalcWeek6": 0,
        "tbResCalcWeek7": 40,
        "tbResCalcWeek8": 40,
        "tbResCalcWeek9": 40,
        "tbResCalcWeek10": 40,
        "tbResCalcWeek11": 40,
        "tbResCalcWeek12": 41.400000000000006,
        "tbResCalcWeek13": 0,
        "tbResCalcWeek14": 0,
        "tbResCalcWeek15": 0,
        "tbResCalcWeek16": 46.34,
        "tbResCalcWeek17": 18.74,
        "tbResCalcWeek18": 18.74,
        "tbResCalcWeek19": 18.74,
        "tbResCalcWeek20": 18.74,
        "tbResCalcWeek21": 65.61,
        "tbResCalcWeek22": 56.239999999999995,
        "tbResCalcWeek23": 0,
        "tbResCalcWeek24": 0,
        "tbResCalcWeek25": 0,
        "tbResCalcWeek26": 0,
        "tbResCalcWeek27": 0,
        "tbResCalcWeek28": 0,
        "tbResCalcWeek29": 0,
        "tbResCalcWeek30": 0,
        "tbResCalcWeek31": 0,
        "tbResCalcWeek32": 0,
        "tbResCalcAzureID": "a1",
        "tbResCalcCustomerID": "a44",
        "tbResCalcLastModified": "22-Jan-19"
    },
    {
        "tbResCalcID": "2",
        "tbResCalcTbResID": "700",
        "tbResCalcTbID": "525",
        "tbResCalcName": "DetailRow",
        "tbResCalcWeek": 5,
        "tbResCalcHours": 40,
        "tbResCalcWdays": 61,
        "tbResCalcStartWeekNo": 6,
        "tbResCalcTbWeekNo": 30,
        "tbResCalcWeekSumHours": 2.5,
        "tbResCalcWeekSumCost": 2.5,
        "tbResCalcWeek1": 0,
        "tbResCalcWeek2": 0,
        "tbResCalcWeek3": 0,
        "tbResCalcWeek4": 0,
        "tbResCalcWeek5": 0,
        "tbResCalcWeek6": 0,
        "tbResCalcWeek7": 0,
        "tbResCalcWeek8": 0,
        "tbResCalcWeek9": 0,
        "tbResCalcWeek10": 0,
        "tbResCalcWeek11": 0,
        "tbResCalcWeek12": 0,
        "tbResCalcWeek13": 0,
        "tbResCalcWeek14": 0,
        "tbResCalcWeek15": 0,
        "tbResCalcWeek16": 0,
        "tbResCalcWeek17": 0,
        "tbResCalcWeek18": 0,
        "tbResCalcWeek19": 0,
        "tbResCalcWeek20": 0,
        "tbResCalcWeek21": 0,
        "tbResCalcWeek22": 0,
        "tbResCalcWeek23": 0,
        "tbResCalcWeek24": 0,
        "tbResCalcWeek25": 0,
        "tbResCalcWeek26": 0,
        "tbResCalcWeek27": 0,
        "tbResCalcWeek28": 0,
        "tbResCalcWeek29": 0,
        "tbResCalcWeek30": 0,
        "tbResCalcWeek31": 0,
        "tbResCalcWeek32": 0,
        "tbResCalcAzureID": "a1",
        "tbResCalcCustomerID": "44",
        "tbResCalcLastModified": "22-Jan-19"
    }
]
