[
    {
        "tbMDID": "525",
        "tbMDGate": "256 lines of text",
        "tbMDHealthOverall": "256 lines of text",
        "tbMDHealthScope": "256 lines of text",
        "tbMDHealthCost": "256 lines of text",
        "tbMDHealthIssues": "256 lines of text",
        "tbMDHealthRisk": "256 lines of text",
        "tbMDHealthSchedule": "256 lines of text",
        "tbMDHealthHours": "256 lines of text",
        "tbMDInvestmentCategory": "256 lines of text",
        "tbMDInvestmentInitiative": "256 lines of text",
        "tbMDInvestmentObjective": "256 lines of text",
        "tbMDInvestmentStrategy": "256 lines of text",
        "tbMDROMEstimate": "256 lines of text",
        "tbMDPortfolio": "256 lines of text",
        "tbMDProgram": "256 lines of text",
        "tbMDProgActivityAlignment": "256 lines of text",
        "tbMDSize": "256 lines of text",
        "tbMDStageApprover": "256 lines of text",
        "tbMDWrittenBy": "256 lines of text",
        "tbMDBusinessAdvisor": "256 lines of text",
        "tbMDBusinessOwner": "256 lines of text",
        "tbMDDeliveryManager": "256 lines of text",
        "tbMDOrgManager": "256 lines of text",
        "tbMDPriorityStrategic": "256 lines of text",
        "tbMDSponsoringDepartment": "256 lines of text",
        "tbMDPrimaryContact": "256 lines of text",
        "tbMDBenefitCostRatio": 2,
        "tbMDContactNumber": "256 lines of text",
        "tbMDResponsibleTeam": "256 lines of text",
        "tbMDRiskVsSizeAndComplexity": "256 lines of text",
        "tbMDEcnomicValueAdded": 3,
        "tbMDEstimationClass": "256 lines of text",
        "tbMDInternalRateOfReturn": 4,
        "tbMDSprintName": "256 lines of text",
        "tbMDSunkCosts": 5,
        "tbMDSyncNotes": "256 lines of text",
        "tbMDNotesProject": "256 lines of text",
        "tbMDContractNumber": "256 lines of text",
        "tbMDNetPresentValue": 6,
        "tbMDOpportunityCost": 7,
        "tbMDPaybackPeriod": 8,
        "tbMDPrimaryLineOfBusiness": "256 lines of text",
        "tbMDBackgroundInfo": "256 lines of text",
        "tbMDCapabilitiesNeeded": "256 lines of text",
        "tbMDConsequence": "256 lines of text",
        "tbMDExpectedBenfits": "256 lines of text",
        "tbMDProblemOpportunity": "256 lines of text",
        "tbMDConstraintsAssumptions": "256 lines of text",
        "tbMDCostBenefitAnalysis": "256 lines of text",
        "tbMDExecutiveSummary": "256 lines of text",
        "tbMDSeniorLevelCommittment": "256 lines of text",
        "tbMDStakeholderDescription": "256 lines of text",
        "tbMDNotesWorkflow": "256 lines of text",
        "tbMDOther5": "256 lines of text",
        "tbMDOther6": "256 lines of text",
        "tbMDOther7": "256 lines of text",
        "tbMDOther8": "256 lines of text",
        "tbMDOther9": "256 lines of text",
        "tbMDOther10": "256 lines of text",
        "tbMDOther11": "256 lines of text",
        "tbMDOther12": "256 lines of text",
        "tbMDName": "auto-created for tbID cross ref: 525",
        "tbMDCustomerID": "a44",
        "tbMDAzureID": "256 lines of text",
        "tbMDNameShort": "256 lines of text",
        "tbMDProjectNumber": "256 lines of text",
        "tbMDDescription": "256 lines of text",
        "tbMDNotes": "256 lines of text",
        "tbMDExtLink1": "256 lines of text",
        "tbMDExtSystemID1": "256 lines of text",
        "tbMDSortOrder": 1,
        "tbMDtbLastModified": "256 lines of text",
        "tbMDPriority": "256 lines of text",
        "tbMDStatus": "256 lines of text",
        "tbMDState": "256 lines of text",
        "tbMDSeverity": "256 lines of text",
        "tbMDStage": "256 lines of text",
        "tbMDPhase": "256 lines of text",
        "tbMDCategory": "256 lines of text",
        "tbMDHealth": "256 lines of text",
        "tbMDResponsibility": "256 lines of text",
        "tbMDDepartment": "256 lines of text",
        "tbMDExSponsor": "256 lines of text",
        "tbMDPM": "256 lines of text",
        "tbMDProjectType": "256 lines of text",
        "tbMDShowIn": "256 lines of text",
        "tbMDYesNoSelector": "256 lines of text",
        "tbMDProduct": "256 lines of text",
        "tbMDContact": "256 lines of text",
        "tbMDWBS": "256 lines of text",
        "tbMDWeighting": 1,
        "tbMDLocation": "256 lines of text",
        "tbMDPrimarySkill": "256 lines of text",
        "tbMDPrimaryRole": "256 lines of text",
        "tbMDOther2": "256 lines of text",
        "tbMDOther3": "256 lines of text",
        "tbMDOther4": "256 lines of text",
        "canvasNo": 1,
        "tbMDRefID": "a0"
    },
    {
        "tbMDID": "526",
        "tbMDGate": "256 lines of text",
        "tbMDHealthOverall": "256 lines of text",
        "tbMDHealthScope": "256 lines of text",
        "tbMDHealthCost": "256 lines of text",
        "tbMDHealthIssues": "256 lines of text",
        "tbMDHealthRisk": "256 lines of text",
        "tbMDHealthSchedule": "256 lines of text",
        "tbMDHealthHours": "256 lines of text",
        "tbMDInvestmentCategory": "256 lines of text",
        "tbMDInvestmentInitiative": "256 lines of text",
        "tbMDInvestmentObjective": "256 lines of text",
        "tbMDInvestmentStrategy": "256 lines of text",
        "tbMDROMEstimate": "256 lines of text",
        "tbMDPortfolio": "256 lines of text",
        "tbMDProgram": "256 lines of text",
        "tbMDProgActivityAlignment": "256 lines of text",
        "tbMDSize": "256 lines of text",
        "tbMDStageApprover": "256 lines of text",
        "tbMDWrittenBy": "256 lines of text",
        "tbMDBusinessAdvisor": "256 lines of text",
        "tbMDBusinessOwner": "256 lines of text",
        "tbMDDeliveryManager": "256 lines of text",
        "tbMDOrgManager": "256 lines of text",
        "tbMDPriorityStrategic": "256 lines of text",
        "tbMDSponsoringDepartment": "256 lines of text",
        "tbMDPrimaryContact": "256 lines of text",
        "tbMDBenefitCostRatio": 2,
        "tbMDContactNumber": "256 lines of text",
        "tbMDResponsibleTeam": "256 lines of text",
        "tbMDRiskVsSizeAndComplexity": "256 lines of text",
        "tbMDEcnomicValueAdded": 3,
        "tbMDEstimationClass": "256 lines of text",
        "tbMDInternalRateOfReturn": 4,
        "tbMDSprintName": "256 lines of text",
        "tbMDSunkCosts": 5,
        "tbMDSyncNotes": "256 lines of text",
        "tbMDNotesProject": "256 lines of text",
        "tbMDContractNumber": "256 lines of text",
        "tbMDNetPresentValue": 6,
        "tbMDOpportunityCost": 7,
        "tbMDPaybackPeriod": 8,
        "tbMDPrimaryLineOfBusiness": "256 lines of text",
        "tbMDBackgroundInfo": "256 lines of text",
        "tbMDCapabilitiesNeeded": "256 lines of text",
        "tbMDConsequence": "256 lines of text",
        "tbMDExpectedBenfits": "256 lines of text",
        "tbMDProblemOpportunity": "256 lines of text",
        "tbMDConstraintsAssumptions": "256 lines of text",
        "tbMDCostBenefitAnalysis": "256 lines of text",
        "tbMDExecutiveSummary": "256 lines of text",
        "tbMDSeniorLevelCommittment": "256 lines of text",
        "tbMDStakeholderDescription": "256 lines of text",
        "tbMDNotesWorkflow": "256 lines of text",
        "tbMDOther5": "256 lines of text",
        "tbMDOther6": "256 lines of text",
        "tbMDOther7": "256 lines of text",
        "tbMDOther8": "256 lines of text",
        "tbMDOther9": "256 lines of text",
        "tbMDOther10": "256 lines of text",
        "tbMDOther11": "256 lines of text",
        "tbMDOther12": "256 lines of text",
        "tbMDName": "auto-created for tbID cross ref: 525",
        "tbMDCustomerID": "a44",
        "tbMDAzureID": "256 lines of text",
        "tbMDNameShort": "256 lines of text",
        "tbMDProjectNumber": "256 lines of text",
        "tbMDDescription": "256 lines of text",
        "tbMDNotes": "256 lines of text",
        "tbMDExtLink1": "256 lines of text",
        "tbMDExtSystemID1": "256 lines of text",
        "tbMDSortOrder": 1,
        "tbMDtbLastModified": "256 lines of text",
        "tbMDPriority": "256 lines of text",
        "tbMDStatus": "256 lines of text",
        "tbMDState": "256 lines of text",
        "tbMDSeverity": "256 lines of text",
        "tbMDStage": "256 lines of text",
        "tbMDPhase": "256 lines of text",
        "tbMDCategory": "256 lines of text",
        "tbMDHealth": "256 lines of text",
        "tbMDResponsibility": "256 lines of text",
        "tbMDDepartment": "256 lines of text",
        "tbMDExSponsor": "256 lines of text",
        "tbMDPM": "256 lines of text",
        "tbMDProjectType": "256 lines of text",
        "tbMDShowIn": "256 lines of text",
        "tbMDYesNoSelector": "256 lines of text",
        "tbMDProduct": "256 lines of text",
        "tbMDContact": "256 lines of text",
        "tbMDWBS": "256 lines of text",
        "tbMDWeighting": 1,
        "tbMDLocation": "256 lines of text",
        "tbMDPrimarySkill": "256 lines of text",
        "tbMDPrimaryRole": "256 lines of text",
        "tbMDOther2": "256 lines of text",
        "tbMDOther3": "256 lines of text",
        "tbMDOther4": "256 lines of text",
        "canvasNo": 1,
        "tbMDRefID": "a0"
    },
    {
        "tbMDID": "527",
        "tbMDGate": "256 lines of text",
        "tbMDHealthOverall": "256 lines of text",
        "tbMDHealthScope": "256 lines of text",
        "tbMDHealthCost": "256 lines of text",
        "tbMDHealthIssues": "256 lines of text",
        "tbMDHealthRisk": "256 lines of text",
        "tbMDHealthSchedule": "256 lines of text",
        "tbMDHealthHours": "256 lines of text",
        "tbMDInvestmentCategory": "256 lines of text",
        "tbMDInvestmentInitiative": "256 lines of text",
        "tbMDInvestmentObjective": "256 lines of text",
        "tbMDInvestmentStrategy": "256 lines of text",
        "tbMDROMEstimate": "256 lines of text",
        "tbMDPortfolio": "256 lines of text",
        "tbMDProgram": "256 lines of text",
        "tbMDProgActivityAlignment": "256 lines of text",
        "tbMDSize": "256 lines of text",
        "tbMDStageApprover": "256 lines of text",
        "tbMDWrittenBy": "256 lines of text",
        "tbMDBusinessAdvisor": "256 lines of text",
        "tbMDBusinessOwner": "256 lines of text",
        "tbMDDeliveryManager": "256 lines of text",
        "tbMDOrgManager": "256 lines of text",
        "tbMDPriorityStrategic": "256 lines of text",
        "tbMDSponsoringDepartment": "256 lines of text",
        "tbMDPrimaryContact": "256 lines of text",
        "tbMDBenefitCostRatio": 2,
        "tbMDContactNumber": "256 lines of text",
        "tbMDResponsibleTeam": "256 lines of text",
        "tbMDRiskVsSizeAndComplexity": "256 lines of text",
        "tbMDEcnomicValueAdded": 3,
        "tbMDEstimationClass": "256 lines of text",
        "tbMDInternalRateOfReturn": 4,
        "tbMDSprintName": "256 lines of text",
        "tbMDSunkCosts": 5,
        "tbMDSyncNotes": "256 lines of text",
        "tbMDNotesProject": "256 lines of text",
        "tbMDContractNumber": "256 lines of text",
        "tbMDNetPresentValue": 6,
        "tbMDOpportunityCost": 7,
        "tbMDPaybackPeriod": 8,
        "tbMDPrimaryLineOfBusiness": "256 lines of text",
        "tbMDBackgroundInfo": "256 lines of text",
        "tbMDCapabilitiesNeeded": "256 lines of text",
        "tbMDConsequence": "256 lines of text",
        "tbMDExpectedBenfits": "256 lines of text",
        "tbMDProblemOpportunity": "256 lines of text",
        "tbMDConstraintsAssumptions": "256 lines of text",
        "tbMDCostBenefitAnalysis": "256 lines of text",
        "tbMDExecutiveSummary": "256 lines of text",
        "tbMDSeniorLevelCommittment": "256 lines of text",
        "tbMDStakeholderDescription": "256 lines of text",
        "tbMDNotesWorkflow": "256 lines of text",
        "tbMDOther5": "256 lines of text",
        "tbMDOther6": "256 lines of text",
        "tbMDOther7": "256 lines of text",
        "tbMDOther8": "256 lines of text",
        "tbMDOther9": "256 lines of text",
        "tbMDOther10": "256 lines of text",
        "tbMDOther11": "256 lines of text",
        "tbMDOther12": "256 lines of text",
        "tbMDName": "auto-created for tbID cross ref: 525",
        "tbMDCustomerID": "a44",
        "tbMDAzureID": "256 lines of text",
        "tbMDNameShort": "256 lines of text",
        "tbMDProjectNumber": "256 lines of text",
        "tbMDDescription": "256 lines of text",
        "tbMDNotes": "256 lines of text",
        "tbMDExtLink1": "256 lines of text",
        "tbMDExtSystemID1": "256 lines of text",
        "tbMDSortOrder": 1,
        "tbMDtbLastModified": "256 lines of text",
        "tbMDPriority": "256 lines of text",
        "tbMDStatus": "256 lines of text",
        "tbMDState": "256 lines of text",
        "tbMDSeverity": "256 lines of text",
        "tbMDStage": "256 lines of text",
        "tbMDPhase": "256 lines of text",
        "tbMDCategory": "256 lines of text",
        "tbMDHealth": "256 lines of text",
        "tbMDResponsibility": "256 lines of text",
        "tbMDDepartment": "256 lines of text",
        "tbMDExSponsor": "256 lines of text",
        "tbMDPM": "256 lines of text",
        "tbMDProjectType": "256 lines of text",
        "tbMDShowIn": "256 lines of text",
        "tbMDYesNoSelector": "256 lines of text",
        "tbMDProduct": "256 lines of text",
        "tbMDContact": "256 lines of text",
        "tbMDWBS": "256 lines of text",
        "tbMDWeighting": 1,
        "tbMDLocation": "256 lines of text",
        "tbMDPrimarySkill": "256 lines of text",
        "tbMDPrimaryRole": "256 lines of text",
        "tbMDOther2": "256 lines of text",
        "tbMDOther3": "256 lines of text",
        "tbMDOther4": "256 lines of text",
        "canvasNo": 1,
        "tbMDRefID": "a0"
    }
]
